Test Case No.,AdvReportInterval(seconds),Sensor-id,Sensor-Name,Enabled/Disabled,Operation,ReadMode,ReportInterval(seconds),Handle,DataValueType,DataRange,,,ExpectedOutput,,,,ExpectedErrors
,,,,,,,,,,Minimum,Maximum,,ReadInterval(seconds),ReportInterval(seconds),ReadCount,NotificationConnectionLifeTime(seconds),
1,5,1,Proximity,Enabled,Read,Advertisement,2,0,Fixed,14,100,,0,5,100,0,0
2,5,12,Temperature,Enabled,Read,Connect,0,24,Variable,30,50,,5,5,50,0,0
2,5,15,Pressure,Enabled,Read,Connect,0,26,Variable,0,100,,5,5,50,0,0
2,5,13,Humidity,Enabled,Read,Connect,2,30,Variable,30,60,,5,2,50,0,0
3,5,12,Temperature,Enabled,Read,Connect,0,24,Variable,30,50,,5,5,50,0,0
3,5,13,Humidity,Enabled,Notification,Connect,2,30,Variable,30,60,,5,2,50,0,0
